<?xml version="1.0" encoding="utf-8"?>
<!-- Generator: Adobe Illustrator 16.0.0, SVG Export Plug-In . SVG Version: 6.00 Build 0)  -->
<!DOCTYPE svg PUBLIC "-//W3C//DTD SVG 1.1//EN" "http://www.w3.org/Graphics/SVG/1.1/DTD/svg11.dtd">
<svg version="1.1" id="Calque_1" xmlns="http://www.w3.org/2000/svg" xmlns:xlink="http://www.w3.org/1999/xlink" x="0px" y="0px"
	 width="14px" height="14px" viewBox="0 0 12 12" enable-background="new 0 0 12 12" xml:space="preserve">
<path fill="#ffffff" d="M10.65,8.352C9.874,7.732,9.086,7.355,8.318,7.977L7.859,8.35C7.525,8.622,6.902,9.891,4.491,7.305
	c-2.41-2.583-0.977-2.986-0.64-3.256l0.46-0.374C5.075,3.054,4.787,2.273,4.236,1.47L3.904,0.982
	C3.351,0.181,2.749-0.346,1.983,0.273L1.57,0.61C1.231,0.84,0.286,1.587,0.057,3.007c-0.275,1.703,0.595,3.654,2.59,5.794
	c1.993,2.143,3.943,3.219,5.791,3.198c1.537-0.015,2.465-0.784,2.754-1.063l0.416-0.336c0.764-0.619,0.289-1.25-0.488-1.871
	L10.65,8.352z"/>
</svg>
