<?xml version="1.0" encoding="utf-8"?>
<!-- Generator: Adobe Illustrator 16.0.0, SVG Export Plug-In . SVG Version: 6.00 Build 0)  -->
<!DOCTYPE svg PUBLIC "-//W3C//DTD SVG 1.1//EN" "http://www.w3.org/Graphics/SVG/1.1/DTD/svg11.dtd">
<svg version="1.1" id="Calque_1" xmlns="http://www.w3.org/2000/svg" xmlns:xlink="http://www.w3.org/1999/xlink" x="0px" y="0px"
	 width="13.778px" height="7.778px" viewBox="-3 3 13.778 7.778" enable-background="new -3 3 13.778 7.778" xml:space="preserve">
<g>
	<g>
		<polygon fill="#188A2C" points="3.365,3 -3,9.363 -1.586,10.778 3.889,5.302 9.365,10.778 10.778,9.363 4.414,3 3.889,3.524 		"/>
	</g>
</g>
</svg>
